…
  select(week, subject_ID, control_arm, observation) 


data_f
```

    ## # A tibble: 160 × 4
    ##    week   subject_ID control_arm observation
    ##    <fct>  <chr>      <chr>             <dbl>
    ##  1 week_1 01.csv     control            0.2 
    ##  2 week_2 01.csv     control           -1.31
    ##  3 week_3 01.csv     control            0.66
    ##  4 week_4 01.csv     control            1.96
    ##  5 week_5 01.csv     control            0.23
    ##  6 week_6 01.csv     control            1.09
    ##  7 week_7 01.csv     control            0.05
    ##  8 week_8 01.csv     control            1.94
    ##  9 week_1 02.csv     control            1.13
    ## 10 week_2 02.csv     control           -0.88
    ## # … with 150 more rows
…
